{
  "_comment": "Build with `packer build -var-file=debian10.json debian.json`",
  "vm_name": "debian10",
  "cpus": "1",
  "disk_size": "8192",
  "iso_checksum": "47d35187b4903e803209959434fb8b65ead3ad2a8f007eef1c3d3284f356ab9955aa7e15e24cb7af6a3859aa66837f5fa2e7441f936496ea447904f7dddfdc20",
  "iso_checksum_type": "sha512",
  "iso_name": "debian-10.9.0-amd64-netinst.iso",
  "iso_url": "https://cdimage.debian.org/debian-cd/current/amd64/iso-cd/debian-10.9.0-amd64-netinst.iso",
  "memory": "512",
  "version": "10",
  "preseed" : "preseed-buster.cfg",
  "headless": "false"
}
