{
  "_comment": "Build with `PROXMOX_URL=xxx PROXMOX_USERNAME=apiuser PROXMOX_PASSWORD=hunter2 packer build -var-file ubuntuXXXX.json ubuntu.json`",
  "builders": [
    {
      "type": "proxmox",
      "insecure_skip_tls_verify": true,
      "memory": 1024,
      "qemu_agent": false,
      "cpu_type": "host",
      "node": "ge",
      "network_adapters": [
        {
          "bridge": "vmbr0"
        }
      ],
      "scsi_controller": "virtio-scsi-pci",
      "disks": [
        {
          "type": "virtio",
          "cache_mode": "writeback",
          "disk_size": "20G",
          "storage_pool": "hax0rbana",
          "storage_pool_type": "rbd",
          "format": "raw"
        }
      ],

      "iso_url": "{{user `iso_url`}}",
      "iso_checksum": "{{user `iso_checksum`}}",
      "iso_storage_pool": "local",
      "http_directory": "config",
      "http_bind_address": "192.168.192.63",
      "boot_wait": "5s",

      "boot_command": [
      "{{user `boot_prefix`}}",
      "/install/vmlinuz ",
      "initrd=/install/initrd.gz ",
      "preseed/url=http://{{ .HTTPIP }}:{{ .HTTPPort }}/preseed.cfg ",
      "netcfg/disable_autoconfig=true ",
      "netcfg/get_ipaddress=192.168.192.207 ",
      "netcfg/get_netmask=255.255.255.0 ",
      "<wait3>",
      "netcfg/get_gateway=192.168.192.1 ",
      "netcfg/get_nameservers=192.168.192.104 ",
      "auto=true ",
      "priority=critical ",
      "-- <enter>"
      ],

      "ssh_host": "192.168.192.207",
      "ssh_username": "vagrant",
      "ssh_timeout": "120m",
      "ssh_password": "vagrant",
      "ssh_private_key_file": "~/.ssh/id_ed25519",

      "unmount_iso": true,
      "template_name": "ubuntu-{{user `version`}}",
      "template_description": "Ubuntu {{user `version`}}, generated on {{ isotime \"2006-01-02T15:04:05Z\" }}",
      "cloud_init": true,
      "cloud_init_storage_pool": "hax0rbana"
    }
  ],
  "provisioners": [
    {
      "type": "shell-local",
      "inline": ["./telegraf_prep.sh"]
    },
    {
      "type": "file",
      "source": "settings.rules",
      "destination": "/tmp/settings.rules"
    },
    {
      "type": "file",
      "source": "file_operations.rules",
      "destination": "/tmp/file_operations.rules"
    },
    {
      "type": "file",
      "source": "process_operations.rules",
      "destination": "/tmp/process_operations.rules"
    },
    {
      "type": "file",
      "source": "shell_operations.rules",
      "destination": "/tmp/shell_operations.rules"
    },
    {
      "type": "file",
      "source": "file_monitoring.rules",
      "destination": "/tmp/file_monitoring.rules"
    },
    {
      "type": "file",
      "source": "telegraf.conf",
      "destination": "/tmp/telegraf.conf"
    },
    {
      "type": "file",
      "source": "rc.local",
      "destination": "/tmp/rc.local"
    },
    {
      "type": "file",
      "source": "upgrade.timer",
      "destination": "/tmp/upgrade.timer"
    },
    {
      "type": "file",
      "source": "upgrade.service",
      "destination": "/tmp/upgrade.service"
    },
    {
      "type": "file",
      "source": "network.conf",
      "destination": "/tmp/network.conf"
    },
    {
      "type": "shell",
      "script": "cloud_init.sh"
    },
    {
      "type": "shell-local",
      "inline": ["if [ -f influxdb_telegraf_url.txt.pgp ]; then shred -u influxdb_telegraf_url.txt; fi",
                 "if [ -f influxdb_telegraf_username.txt.pgp ]; then shred -u influxdb_telegraf_username.txt; fi",
                 "if [ -f influxdb_telegraf_password.txt.pgp ]; then shred -u influxdb_telegraf_password.txt; fi"]
    }
  ],
  "variables": {
    "boot_prefix": "<esc><wait><esc><wait><enter><wait>"
  }
}
